ESM 244 Lab 1
…
* Need to make sure that CRS is the same for both things (trees and roads in this case)

* st_transform() will change the CRS, structure is (name of data, new CRS)

sf_map <- read_sf(here("data", "sf_map", "tl_2017_06075_roads.shp"))

st_transform(sf_map, 4326)

## Simple feature collection with 4087 features and 4 fields
## geometry type:  LINESTRING
## dimension:      XY
## bbox:           xmin: -122.5136 ymin: 37.70813 xmax: -122.3496 ymax: 37.83213
## geographic CRS: WGS 84
## # A tibble: 4,087 x 5
##    LINEARID   FULLNAME     RTTYP MTFCC                                  geometry
##  * <chr>      <chr>        <chr> <chr>                          <LINESTRING []>
##  1 110498938~ Hwy 101 S O~ M     S1400 (-122.4041 37.74842, -122.404 37.7483, -~
##  2 110498937~ Hwy 101 N o~ M     S1400 (-122.4744 37.80691, -122.4746 37.80684,~
##  3 110366022~ Ludlow Aly ~ M     S1780 (-122.4596 37.73853, -122.4596 37.73845,~
##  4 110608181~ Mission Bay~ M     S1400 (-122.3946 37.77082, -122.3929 37.77092,~
##  5 110366689~ 25th Ave N   M     S1400 (-122.4858 37.78953, -122.4855 37.78935,~
##  6 110368970~ Willard N    M     S1400 (-122.457 37.77817, -122.457 37.77812, -~
##  7 110368970~ 25th Ave N   M     S1400 (-122.4858 37.78953, -122.4858 37.78952,~
##  8 110498933~ Avenue N     M     S1400 (-122.3643 37.81947, -122.3638 37.82064,~
##  9 110368970~ 25th Ave N   M     S1400  (-122.4854 37.78983, -122.4858 37.78953)
## 10 110367749~ Mission Bay~ M     S1400 (-122.3865 37.77086, -122.3878 37.77076,~
## # ... with 4,077 more rows
…
